test/wavefrom.vcd
$date
	Sat Feb 15 00:52:30 2025
$end
$version
	Icarus Verilog
$end
$timescale
	1ps
$end
$scope module Test_Banch $end
$var reg 1 ! clk $end
$scope module uut $end
$var wire 1 ! clk $end
$var wire 1 " ws $end
$var wire 3 # scrB [2:0] $end
$var wire 2 $ scrA [1:0] $end
$var wire 1 % rfwe $end
$var wire 32 & res_alu [31:0] $end
$var wire 32 ' pc_imem [31:0] $end
$var wire 32 ( mux5_alu [31:0] $end
$var wire 32 ) mux3_alu [31:0] $end
$var wire 1 * mewe $end
$var wire 3 + memi [2:0] $end
$var wire 1 , jalr $end
$var wire 1 - jal $end
$var wire 32 . in2_mux5 [31:0] $end
$var wire 32 / imm_s [31:0] $end
$var wire 32 0 imm_j [31:0] $end
$var wire 32 1 imm_i [31:0] $end
$var wire 32 2 imm_b [31:0] $end
$var wire 32 3 imem_out [31:0] $end
$var wire 1 4 enpc $end
$var wire 1 5 comp $end
$var wire 1 6 b $end
$var wire 4 7 aop [3:0] $end
$var wire 32 8 WD3 [31:0] $end
$var wire 32 9 RD2 [31:0] $end
$var wire 32 : RD1 [31:0] $end
$var wire 32 ; RD [31:0] $end
$scope module alu_inst $end
$var wire 1 5 zero $end
$var wire 4 < control [3:0] $end
$var wire 32 = b [31:0] $end
$var wire 32 > a [31:0] $end
$var reg 32 ? res [31:0] $end
$upscope $end
$scope module data_mem_inst $end
$var wire 32 @ A [31:0] $end
$var wire 1 ! clk $end
$var wire 1 * WE $end
$var wire 32 A WD [31:0] $end
$var wire 3 B I [2:0] $end
$var parameter 32 C MEM_SIZE $end
$var reg 32 D RD [31:0] $end
$upscope $end
$scope module decoder_inst $end
$var wire 7 E Opcode [6:0] $end
$var wire 3 F func3 [2:0] $end
$var wire 7 G func7 [6:0] $end
$var reg 4 H aop [3:0] $end
$var reg 1 6 b $end
$var reg 1 4 enpc $end
$var reg 1 - jal $end
$var reg 1 , jalr $end
$var reg 3 I memi [2:0] $end
$var reg 1 * mewe $end
$var reg 1 % rfwe $end
$var reg 2 J scrA [1:0] $end
$var reg 3 K scrB [2:0] $end
$var reg 1 " ws $end
$upscope $end
$scope module imem $end
$var wire 32 L data_out [31:0] $end
$var wire 32 M addr [31:0] $end
$var parameter 32 N MEM_SIZE $end
$upscope $end
$scope module mux2_inst $end
$var wire 32 O in0 [31:0] $end
$var wire 32 P in1 [31:0] $end
$var wire 1 " sel $end
$var parameter 32 Q WIDTH $end
$var reg 32 R out [31:0] $end
$upscope $end
$scope module mux3_inst $end
$var wire 32 S in2 [31:0] $end
$var wire 2 T scrA [1:0] $end
$var wire 32 U in1 [31:0] $end
$var wire 32 V in0 [31:0] $end
$var parameter 32 W WIDTH $end
$var reg 32 X out [31:0] $end
$upscope $end
$scope module mux5_inst $end
$var wire 32 Y in2 [31:0] $end
$var wire 32 Z in4 [31:0] $end
$var wire 3 [ scrB [2:0] $end
$var wire 32 \ in3 [31:0] $end
$var wire 32 ] in1 [31:0] $end
$var wire 32 ^ in0 [31:0] $end
$var parameter 32 _ WIDTH $end
$var reg 32 ` out [31:0] $end
$upscope $end
$scope module pc $end
$var wire 1 6 b $end
$var wire 1 a c $end
$var wire 1 ! clk $end
$var wire 1 5 comp $end
$var wire 32 b const_4 [31:0] $end
$var wire 1 4 enpc $end
$var wire 1 - jal $end
$var wire 1 , jalr $end
$var wire 32 c mux2_pc [31:0] $end
$var wire 32 d mux2_imm_j_imm_b [31:0] $end
$var wire 32 e imm_j [31:0] $end
$var wire 32 f imm_b [31:0] $end
$var wire 32 g adrr_input [31:0] $end
$var wire 32 h addr_control_mux2 [31:0] $end
$var wire 32 i RD1 [31:0] $end
$var reg 32 j pc [31:0] $end
$scope module addr $end
$var wire 32 k b [31:0] $end
$var wire 32 l c [31:0] $end
$var wire 32 m a [31:0] $end
$upscope $end
$scope module mux2_mux_4_imm_j_imm_b $end
$var wire 1 6 sel $end
$var wire 32 n in1 [31:0] $end
$var wire 32 o in0 [31:0] $end
$var parameter 32 p WIDTH $end
$var reg 32 q out [31:0] $end
$upscope $end
$scope module mux_4_mux2 $end
$var wire 32 r in0 [31:0] $end
$var wire 32 s in1 [31:0] $end
$var wire 1 a sel $end
$var parameter 32 t WIDTH $end
$var reg 32 u out [31:0] $end
$upscope $end
$scope module mux_RD1_addr $end
$var wire 32 v in0 [31:0] $end
$var wire 1 , sel $end
$var wire 32 w in1 [31:0] $end
$var parameter 32 x WIDTH $end
$var reg 32 y out [31:0] $end
$upscope $end
$upscope $end
$scope module reg_file $end
$var wire 5 z A1 [4:0] $end
$var wire 5 { A2 [4:0] $end
$var wire 5 | A3 [4:0] $end
$var wire 32 } RD1 [31:0] $end
$var wire 32 ~ RD2 [31:0] $end
$var wire 32 !" WD3 [31:0] $end
$var wire 1 % WE3 $end
$var wire 1 ! clk $end
$var parameter 32 "" OUT_WIDTH $end
$upscope $end
$scope module se_b_inst $end
$var wire 6 #" imm_10_5 [5:0] $end
$var wire 1 $" imm_11 $end
$var wire 1 %" imm_12 $end
$var wire 4 &" imm_4_1 [3:0] $end
$var wire 32 '" imm_b [31:0] $end
$var wire 13 (" full_imm [12:0] $end
$var parameter 32 )" OUT_WIDTH $end
$upscope $end
$scope module se_i_inst $end
$var wire 12 *" in [11:0] $end
$var wire 32 +" Imm_I [31:0] $end
$var parameter 32 ," IN_WIDTH $end
$var parameter 32 -" OUT_WIDTH $end
$upscope $end
$scope module se_j_inst $end
$var wire 10 ." imm_10_1 [9:0] $end
$var wire 1 /" imm_11 $end
$var wire 8 0" imm_19_12 [7:0] $end
$var wire 1 1" imm_20 $end
$var wire 32 2" imm_j [31:0] $end
$var wire 21 3" full_imm [20:0] $end
$var parameter 32 4" OUT_WIDTH $end
$upscope $end
$scope module se_s_inst $end
$var wire 7 5" imm_11_5 [6:0] $end
$var wire 5 6" imm_4_0 [4:0] $end
$var wire 32 7" imm_s [31:0] $end
$var wire 12 8" full_imm [11:0] $end
$var parameter 32 9" OUT_WIDTH $end
$upscope $end
$upscope $end
$upscope $end
$enddefinitions $end
$comment Show the parameter values. $end
$dumpall
b100000 9"
b100000 4"
b100000 -"
b1100 ,"
b100000 )"
b100000 ""
b100000 x
b100000 t
b100000 p
b100000 _
b100000 W
b100000 Q
b11110 N
b11 C
$end
#0
$dumpvars
b110110011 8"
b110110011 7"
b10011 6"
b1101 5"
b1000000110110010 3"
b1000000110110010 2"
01"
b1000 0"
0/"
b11011001 ."
b10 +"
b10 *"
b100000000010 ("
b100000000010 '"
b1 &"
0%"
1$"
b0 #"
b10 !"
b1 ~
b1 }
b11 |
b10 {
b1 z
b100 y
b1 w
b100 v
b100 u
b1000000110110010 s
b100 r
b1000000110110010 q
b1000000110110010 o
b100000000010 n
b100 m
b100 l
b0 k
b0 j
b1 i
b100 h
b100 g
b100000000010 f
b1000000110110010 e
b1000000110110010 d
b100 c
b100 b
0a
b1 `
b1 ^
b10 ]
b110110011 \
b0 [
b100 Z
b1000001000 Y
b1 X
b1 V
b0 U
b0 T
b0 S
b10 R
bx P
b10 O
b0 M
b1000001000000110110011 L
b0 K
b0 J
b0 I
b10 H
b0 G
b0 F
b110011 E
bx D
b0 B
b1 A
b10 @
b10 ?
b1 >
b1 =
b10 <
bx ;
b1 :
b1 9
b10 8
b10 7
06
05
04
b1000001000000110110011 3
b100000000010 2
b10 1
b1000000110110010 0
b110110011 /
b1000001000 .
0-
0,
b0 +
0*
b1 )
b1 (
b0 '
b10 &
1%
b0 $
b0 #
0"
0!
$end
#5000
b11 8
b11 R
b11 !"
05
b11 &
b11 ?
b11 @
b11 O
b11111111111100011000000100110010 d
b11111111111100011000000100110010 q
b11111111111100011000000100110010 s
b10 )
b10 >
b10 X
b100110011 /
b100110011 \
b100110011 7"
b100110011 8"
b1001 5"
b11000 0"
b10011001 ."
b11111111111100011000000100110010 0
b11111111111100011000000100110010 e
b11111111111100011000000100110010 o
b11111111111100011000000100110010 2"
b100011000000100110010 3"
11"
b1 1
b1 ]
b1 +"
b1 *"
b10 2
b10 f
b10 n
b10 '"
b10 ("
0$"
b10 |
b1 {
b10 :
b10 V
b10 i
b10 w
b10 }
b11 z
b100011000 .
b100011000 Y
b1000 c
b1000 y
b100011000000100110011 3
b100011000000100110011 L
b1000 h
b1000 l
b1000 v
b100 '
b100 M
b100 U
b100 j
b100 k
1!
#10000
0!
#15000
b101 8
b101 R
b101 !"
05
b101 &
b101 ?
b101 @
b101 O
b11111111111100010000001000110010 d
b11111111111100010000001000110010 q
b11111111111100010000001000110010 s
b11 )
b11 >
b11 X
b10 (
b10 =
b10 `
b1000110011 /
b1000110011 \
b1000110011 7"
b1000110011 8"
b10001 5"
b10000 0"
b11111111111100010000001000110010 0
b11111111111100010000001000110010 e
b11111111111100010000001000110010 o
b11111111111100010000001000110010 2"
b100010000001000110010 3"
b100011001 ."
b11 1
b11 ]
b11 +"
b11 *"
b100 2
b100 f
b100 n
b100 '"
b100 ("
b10 &"
b100 |
b10 9
b10 A
b10 ^
b10 ~
b11 {
b11 :
b11 V
b11 i
b11 w
b11 }
b10 z
b1100010000 .
b1100010000 Y
b1100 c
b1100 y
b1100010000001000110011 3
b1100010000001000110011 L
b1100 h
b1100 l
b1100 v
b1000 '
b1000 M
b1000 U
b1000 j
b1000 k
1!
#20000
0!
#25000
b100 8
b100 R
b100 !"
05
b100 &
b100 ?
b100 @
b100 O
b1000000110110010 d
b1000000110110010 q
b1000000110110010 s
b1 )
b1 >
b1 X
b11 (
b11 =
b11 `
b110110011 /
b110110011 \
b110110011 7"
b110110011 8"
b1101 5"
b1000 0"
b11011001 ."
b1000000110110010 0
b1000000110110010 e
b1000000110110010 o
b1000000110110010 2"
b1000000110110010 3"
01"
b10 1
b10 ]
b10 +"
b10 *"
b1 &"
b100000000010 2
b100000000010 f
b100000000010 n
b100000000010 '"
b100000000010 ("
1$"
b11 |
b11 9
b11 A
b11 ^
b11 ~
b10 {
b1 :
b1 V
b1 i
b1 w
b1 }
b1 z
b1000001000 .
b1000001000 Y
b10000 c
b10000 y
b1000001000000110110011 3
b1000001000000110110011 L
b10000 h
b10000 l
b10000 v
b1100 '
b1100 M
b1100 U
b1100 j
b1100 k
1!
#30000
0!
#35000
b101 8
b101 R
b101 !"
05
b101 &
b101 ?
b101 @
b101 O
b11111111111100011000000100110010 d
b11111111111100011000000100110010 q
b11111111111100011000000100110010 s
b100 )
b100 >
b100 X
b1 (
b1 =
b1 `
b100110011 /
b100110011 \
b100110011 7"
b100110011 8"
b1001 5"
b11000 0"
b10011001 ."
b11111111111100011000000100110010 0
b11111111111100011000000100110010 e
b11111111111100011000000100110010 o
b11111111111100011000000100110010 2"
b100011000000100110010 3"
11"
b1 1
b1 ]
b1 +"
b1 *"
b10 2
b10 f
b10 n
b10 '"
b10 ("
0$"
b10 |
b1 9
b1 A
b1 ^
b1 ~
b1 {
b100 :
b100 V
b100 i
b100 w
b100 }
b11 z
b100011000 .
b100011000 Y
b10100 c
b10100 y
b100011000000100110011 3
b100011000000100110011 L
b10100 h
b10100 l
b10100 v
b10000 '
b10000 M
b10000 U
b10000 j
b10000 k
1!
#40000
0!
#45000
b1001 8
b1001 R
b1001 !"
05
b1001 &
b1001 ?
b1001 @
b1001 O
b11111111111100010000001000110010 d
b11111111111100010000001000110010 q
b11111111111100010000001000110010 s
b101 )
b101 >
b101 X
b100 (
b100 =
b100 `
b1000110011 /
b1000110011 \
b1000110011 7"
b1000110011 8"
b10001 5"
b10000 0"
b11111111111100010000001000110010 0
b11111111111100010000001000110010 e
b11111111111100010000001000110010 o
b11111111111100010000001000110010 2"
b100010000001000110010 3"
b100011001 ."
b11 1
b11 ]
b11 +"
b11 *"
b100 2
b100 f
b100 n
b100 '"
b100 ("
b10 &"
b100 |
b100 9
b100 A
b100 ^
b100 ~
b11 {
b101 :
b101 V
b101 i
b101 w
b101 }
b10 z
b1100010000 .
b1100010000 Y
b11000 c
b11000 y
b1100010000001000110011 3
b1100010000001000110011 L
b11000 h
b11000 l
b11000 v
b10100 '
b10100 M
b10100 U
b10100 j
b10100 k
1!
#50000
0!
#55000
b110 8
b110 R
b110 !"
05
b110 &
b110 ?
b110 @
b110 O
b1000000110110010 d
b1000000110110010 q
b1000000110110010 s
b1 )
b1 >
b1 X
b101 (
b101 =
b101 `
b110110011 /
b110110011 \
b110110011 7"
b110110011 8"
b1101 5"
b1000 0"
b11011001 ."
b1000000110110010 0
b1000000110110010 e
b1000000110110010 o
b1000000110110010 2"
b1000000110110010 3"
01"
b10 1
b10 ]
b10 +"
b10 *"
b1 &"
b100000000010 2
b100000000010 f
b100000000010 n
b100000000010 '"
b100000000010 ("
1$"
b11 |
b101 9
b101 A
b101 ^
b101 ~
b10 {
b1 :
b1 V
b1 i
b1 w
b1 }
b1 z
b1000001000 .
b1000001000 Y
b11100 c
b11100 y
b1000001000000110110011 3
b1000001000000110110011 L
b11100 h
b11100 l
b11100 v
b11000 '
b11000 M
b11000 U
b11000 j
b11000 k
1!
#60000
0!
#65000
b111 8
b111 R
b111 !"
05
b111 &
b111 ?
b111 @
b111 O
b11111111111100011000000100110010 d
b11111111111100011000000100110010 q
b11111111111100011000000100110010 s
b110 )
b110 >
b110 X
b1 (
b1 =
b1 `
b100110011 /
b100110011 \
b100110011 7"
b100110011 8"
b1001 5"
b11000 0"
b10011001 ."
b11111111111100011000000100110010 0
b11111111111100011000000100110010 e
b11111111111100011000000100110010 o
b11111111111100011000000100110010 2"
b100011000000100110010 3"
11"
b1 1
b1 ]
b1 +"
b1 *"
b10 2
b10 f
b10 n
b10 '"
b10 ("
0$"
b10 |
b1 9
b1 A
b1 ^
b1 ~
b1 {
b110 :
b110 V
b110 i
b110 w
b110 }
b11 z
b100011000 .
b100011000 Y
b100000 c
b100000 y
b100011000000100110011 3
b100011000000100110011 L
b100000 h
b100000 l
b100000 v
b11100 '
b11100 M
b11100 U
b11100 j
b11100 k
1!
#70000
0!
#75000
b1101 8
b1101 R
b1101 !"
05
b1101 &
b1101 ?
b1101 @
b1101 O
b11111111111100010000001000110010 d
b11111111111100010000001000110010 q
b11111111111100010000001000110010 s
b111 )
b111 >
b111 X
b110 (
b110 =
b110 `
b1000110011 /
b1000110011 \
b1000110011 7"
b1000110011 8"
b10001 5"
b10000 0"
b11111111111100010000001000110010 0
b11111111111100010000001000110010 e
b11111111111100010000001000110010 o
b11111111111100010000001000110010 2"
b100010000001000110010 3"
b100011001 ."
b11 1
b11 ]
b11 +"
b11 *"
b100 2
b100 f
b100 n
b100 '"
b100 ("
b10 &"
b100 |
b110 9
b110 A
b110 ^
b110 ~
b11 {
b111 :
b111 V
b111 i
b111 w
b111 }
b10 z
b1100010000 .
b1100010000 Y
b100100 c
b100100 y
b1100010000001000110011 3
b1100010000001000110011 L
b100100 h
b100100 l
b100100 v
b100000 '
b100000 M
b100000 U
b100000 j
b100000 k
1!
#80000
0!
#85000
b1000 8
b1000 R
b1000 !"
05
b1000 &
b1000 ?
b1000 @
b1000 O
b1000000110110010 d
b1000000110110010 q
b1000000110110010 s
b1 )
b1 >
b1 X
b111 (
b111 =
b111 `
b110110011 /
b110110011 \
b110110011 7"
b110110011 8"
b1101 5"
b1000 0"
b11011001 ."
b1000000110110010 0
b1000000110110010 e
b1000000110110010 o
b1000000110110010 2"
b1000000110110010 3"
01"
b10 1
b10 ]
b10 +"
b10 *"
b1 &"
b100000000010 2
b100000000010 f
b100000000010 n
b100000000010 '"
b100000000010 ("
1$"
b11 |
b111 9
b111 A
b111 ^
b111 ~
b10 {
b1 :
b1 V
b1 i
b1 w
b1 }
b1 z
b1000001000 .
b1000001000 Y
b101000 c
b101000 y
b1000001000000110110011 3
b1000001000000110110011 L
b101000 h
b101000 l
b101000 v
b100100 '
b100100 M
b100100 U
b100100 j
b100100 k
1!
#90000
0!
#95000
b1001 8
b1001 R
b1001 !"
05
b1001 &
b1001 ?
b1001 @
b1001 O
b11111111111100011000000100110010 d
b11111111111100011000000100110010 q
b11111111111100011000000100110010 s
b1000 )
b1000 >
b1000 X
b1 (
b1 =
b1 `
b100110011 /
b100110011 \
b100110011 7"
b100110011 8"
b1001 5"
b11000 0"
b10011001 ."
b11111111111100011000000100110010 0
b11111111111100011000000100110010 e
b11111111111100011000000100110010 o
b11111111111100011000000100110010 2"
b100011000000100110010 3"
11"
b1 1
b1 ]
b1 +"
b1 *"
b10 2
b10 f
b10 n
b10 '"
b10 ("
0$"
b10 |
b1 9
b1 A
b1 ^
b1 ~
b1 {
b1000 :
b1000 V
b1000 i
b1000 w
b1000 }
b11 z
b100011000 .
b100011000 Y
b101100 c
b101100 y
b100011000000100110011 3
b100011000000100110011 L
b101100 h
b101100 l
b101100 v
b101000 '
b101000 M
b101000 U
b101000 j
b101000 k
1!
#100000
0!
#105000
b10001 8
b10001 R
b10001 !"
05
b10001 &
b10001 ?
b10001 @
b10001 O
b11111111111100010000001000110010 d
b11111111111100010000001000110010 q
b11111111111100010000001000110010 s
b1001 )
b1001 >
b1001 X
b1000 (
b1000 =
b1000 `
b1000110011 /
b1000110011 \
b1000110011 7"
b1000110011 8"
b10001 5"
b10000 0"
b11111111111100010000001000110010 0
b11111111111100010000001000110010 e
b11111111111100010000001000110010 o
b11111111111100010000001000110010 2"
b100010000001000110010 3"
b100011001 ."
b11 1
b11 ]
b11 +"
b11 *"
b100 2
b100 f
b100 n
b100 '"
b100 ("
b10 &"
b100 |
b1000 9
b1000 A
b1000 ^
b1000 ~
b11 {
b1001 :
b1001 V
b1001 i
b1001 w
b1001 }
b10 z
b1100010000 .
b1100010000 Y
b110000 c
b110000 y
b1100010000001000110011 3
b1100010000001000110011 L
b110000 h
b110000 l
b110000 v
b101100 '
b101100 M
b101100 U
b101100 j
b101100 k
1!
#110000
0!
#115000
b1010 8
b1010 R
b1010 !"
05
b1010 &
b1010 ?
b1010 @
b1010 O
b1000000110110010 d
b1000000110110010 q
b1000000110110010 s
b1 )
b1 >
b1 X
b1001 (
b1001 =
b1001 `
b110110011 /
b110110011 \
b110110011 7"
b110110011 8"
b1101 5"
b1000 0"
b11011001 ."
b1000000110110010 0
b1000000110110010 e
b1000000110110010 o
b1000000110110010 2"
b1000000110110010 3"
01"
b10 1
b10 ]
b10 +"
b10 *"
b1 &"
b100000000010 2
b100000000010 f
b100000000010 n
b100000000010 '"
b100000000010 ("
1$"
b11 |
b1001 9
b1001 A
b1001 ^
b1001 ~
b10 {
b1 :
b1 V
b1 i
b1 w
b1 }
b1 z
b1000001000 .
b1000001000 Y
b110100 c
b110100 y
b1000001000000110110011 3
b1000001000000110110011 L
b110100 h
b110100 l
b110100 v
b110000 '
b110000 M
b110000 U
b110000 j
b110000 k
1!
#120000
0!
#125000
b1011 8
b1011 R
b1011 !"
05
b1011 &
b1011 ?
b1011 @
b1011 O
b11111111111100011000000100110010 d
b11111111111100011000000100110010 q
b11111111111100011000000100110010 s
b1010 )
b1010 >
b1010 X
b1 (
b1 =
b1 `
b100110011 /
b100110011 \
b100110011 7"
b100110011 8"
b1001 5"
b11000 0"
b10011001 ."
b11111111111100011000000100110010 0
b11111111111100011000000100110010 e
b11111111111100011000000100110010 o
b11111111111100011000000100110010 2"
b100011000000100110010 3"
11"
b1 1
b1 ]
b1 +"
b1 *"
b10 2
b10 f
b10 n
b10 '"
b10 ("
0$"
b10 |
b1 9
b1 A
b1 ^
b1 ~
b1 {
b1010 :
b1010 V
b1010 i
b1010 w
b1010 }
b11 z
b100011000 .
b100011000 Y
b111000 c
b111000 y
b100011000000100110011 3
b100011000000100110011 L
b111000 h
b111000 l
b111000 v
b110100 '
b110100 M
b110100 U
b110100 j
b110100 k
1!
#130000
0!
#135000
b10101 8
b10101 R
b10101 !"
05
b10101 &
b10101 ?
b10101 @
b10101 O
b11111111111100010000001000110010 d
b11111111111100010000001000110010 q
b11111111111100010000001000110010 s
b1011 )
b1011 >
b1011 X
b1010 (
b1010 =
b1010 `
b1000110011 /
b1000110011 \
b1000110011 7"
b1000110011 8"
b10001 5"
b10000 0"
b11111111111100010000001000110010 0
b11111111111100010000001000110010 e
b11111111111100010000001000110010 o
b11111111111100010000001000110010 2"
b100010000001000110010 3"
b100011001 ."
b11 1
b11 ]
b11 +"
b11 *"
b100 2
b100 f
b100 n
b100 '"
b100 ("
b10 &"
b100 |
b1010 9
b1010 A
b1010 ^
b1010 ~
b11 {
b1011 :
b1011 V
b1011 i
b1011 w
b1011 }
b10 z
b1100010000 .
b1100010000 Y
b111100 c
b111100 y
b1100010000001000110011 3
b1100010000001000110011 L
b111100 h
b111100 l
b111100 v
b111000 '
b111000 M
b111000 U
b111000 j
b111000 k
1!
#140000
0!
#145000
b1100 8
b1100 R
b1100 !"
05
b1100 &
b1100 ?
b1100 @
b1100 O
b1000000110110010 d
b1000000110110010 q
b1000000110110010 s
b1 )
b1 >
b1 X
b1011 (
b1011 =
b1011 `
b110110011 /
b110110011 \
b110110011 7"
b110110011 8"
b1101 5"
b1000 0"
b11011001 ."
b1000000110110010 0
b1000000110110010 e
b1000000110110010 o
b1000000110110010 2"
b1000000110110010 3"
01"
b10 1
b10 ]
b10 +"
b10 *"
b1 &"
b100000000010 2
b100000000010 f
b100000000010 n
b100000000010 '"
b100000000010 ("
1$"
b11 |
b1011 9
b1011 A
b1011 ^
b1011 ~
b10 {
b1 :
b1 V
b1 i
b1 w
b1 }
b1 z
b1000001000 .
b1000001000 Y
b1000000 c
b1000000 y
b1000001000000110110011 3
b1000001000000110110011 L
b1000000 h
b1000000 l
b1000000 v
b111100 '
b111100 M
b111100 U
b111100 j
b111100 k
1!
